[
  {
    "_id": "614e4c77bebc1b946e7edf6d",
    "nombreProducto": "Torre Gamer Asus",
    "valorUnitario": 5000000,
    "cantidadProducto": 500,
    "url": "http://localhost:3000/public/image-1632600229336.png",
    "__v": 0
  },
  {
    "_id": "614e52bc04775b1d139d09f8",
    "nombreProducto": "Torre Semi-Gamer Dell",
    "valorUnitario": 2500000,
    "cantidadProducto": 160,
    "descripcionPro": "Contiene un procesador ryzen 5 3400G",
    "descripcionGar": "12 meses de garantia",
    "url": "http://localhost:3000/public/image-1632522940169.png",
    "__v": 0
  },
  {
    "_id": "6150d1d2e91280887d7d3ee3",
    "nombreProducto": "hq",
    "valorUnitario": 5,
    "cantidadProducto": 5,
    "descripcionPro": "h",
    "descripcionGar": "h",
    "url": "http://localhost:3000/public/image-1632686546526.png",
    "__v": 0
  },
  {
    "_id": "6150d28b960fe16b7ec8981d",
    "nombreProducto": "Grafica",
    "valorUnitario": 6000000,
    "cantidadProducto": 500,
    "descripcionPro": "N",
    "descripcionGar": "N",
    "url": "http://localhost:3000/public/image-1632790250867.png",
    "__v": 0
  },
  {
    "_id": "6152447d5c52908598975a50",
    "nombreProducto": "ASUS ROG Strix GeForce RTX 3060 12GB GDDR6 PCI Express 4.0 Video Card ROG-STRIX-RTX3060-O12G-V2-GAMING",
    "valorUnitario": 3500000,
    "cantidadProducto": 5,
    "descripcionPro": "12Gb Vram Gddr6",
    "descripcionGar": "Garantia",
    "url": "http://localhost:3000/public/image-1632781437072.png",
    "__v": 0
  },
  {
    "_id": "615268d4d4f92dd0d5650614",
    "nombreProducto": "gfg",
    "valorUnitario": 3,
    "cantidadProducto": 3,
    "descripcionPro": "jyfj",
    "descripcionGar": "jyjf",
    "url": "http://localhost:3000/public/image-1632790739946.png",
    "__v": 0
  },
  {
    "_id": "61527996d4f92dd0d565061f",
    "nombreProducto": "fdafaf",
    "valorUnitario": 2334,
    "cantidadProducto": 4324,
    "descripcionPro": "fef",
    "descripcionGar": "fef",
    "url": "http://localhost:3000/public/image-1632795030721.png",
    "__v": 0
  }
]
